module TODO

go 1.18

require (
	github.com/cli/cli/v2 v2.15.0
	github.com/cli/safeexec v1.0.0
	github.com/spf13/cobra v1.5.0
)

require (
	github.com/AlecAivazis/survey/v2 v2.3.5 // indirect
	github.com/briandowns/spinner v1.18.1 // indirect
	github.com/cli/browser v1.1.0 // indirect
	github.com/cli/go-gh v0.1.1-0.20220817122932-3630ab390fe7 // indirect
	github.com/cli/shurcooL-graphql v0.0.1 // indirect
	github.com/fatih/color v1.7.0 // indirect
	github.com/google/shlex v0.0.0-20191202100458-e7afc7fbc510 // indirect
	github.com/henvic/httpretty v0.0.6 // indirect
	github.com/inconshreveable/mousetrap v1.0.0 // indirect
	github.com/itchyny/gojq v0.12.8 // indirect
	github.com/itchyny/timefmt-go v0.1.3 // indirect
	github.com/kballard/go-shellquote v0.0.0-20180428030007-95032a82bc51 // indirect
	github.com/kr/text v0.1.0 // indirect
	github.com/lucasb-eyer/go-colorful v1.2.0 // indirect
	github.com/mattn/go-colorable v0.1.13 // indirect
	github.com/mattn/go-isatty v0.0.16 // indirect
	github.com/mattn/go-runewidth v0.0.13 // indirect
	github.com/mgutz/ansi v0.0.0-20200706080929-d51e80ef957d // indirect
	github.com/muesli/reflow v0.3.0 // indirect
	github.com/muesli/termenv v0.12.0 // indirect
	github.com/rivo/uniseg v0.2.0 // indirect
	github.com/shurcooL/githubv4 v0.0.0-20220115235240-a14260e6f8a2 // indirect
	github.com/shurcooL/graphql v0.0.0-20200928012149-18c5c3165e3a // indirect
	github.com/spf13/pflag v1.0.5 // indirect
	github.com/thlib/go-timezone-local v0.0.0-20210907160436-ef149e42d28e // indirect
	golang.org/x/net v0.0.0-20220624214902-1bab6f366d9e // indirect
	golang.org/x/sys v0.0.0-20220811171246-fbc7d0a398ab // indirect
	golang.org/x/term v0.0.0-20210927222741-03fcf44c2211 // indirect
	golang.org/x/text v0.3.7 // indirect
	google.golang.org/appengine v1.6.6 // indirect
	google.golang.org/protobuf v1.26.0 // indirect
	gopkg.in/yaml.v3 v3.0.1 // indirect
)
