{
  "2022": {
    "october": [
      {
        "id": "4",
        "cold": "51.541",
        "hot": "41.991"
      },{
        "id": "7",
        "cold": "52.367",
        "hot": "42.501"
      },{
        "id": "9",
        "cold": "52.699",
        "hot": "42.989"
      },{
        "id": "10",
        "cold": "52.902",
        "hot": "42.989"
      },{
        "id": "11",
        "cold": "53.017",
        "hot": "43.091"
      },{
        "id": "13",
        "cold": "53.404",
        "hot": "43.091"
      },{
        "id": "14",
        "cold": "53.468",
        "hot": "43.341"
      },{
        "id": "18",
        "cold": "54.090",
        "hot": "43.547"
      },{
        "id": "20",
        "cold": "54.232",
        "hot": "43.814"
      }
    ],
      "september": [
        {
          "id": "1",
          "cold": "45.263",
          "hot": "38.427"
        },
        {
          "id": "2",
          "cold": "461",
          "hot": "38.483"
        },
        {
          "id": "4",
          "cold": "46.278",
          "hot": "38.556"
        },
        {
          "id": "5",
          "cold": "46.342",
          "hot": "38.561"
        },
        {
          "id": "6",
          "cold": "46.539",
          "hot": "38.628"
        },
        {
          "id": "7",
          "cold": "46.661",
          "hot": "38.628"
        },
        {
          "id": "8",
          "cold": "47.017",
          "hot": "38.706"
        },
        {
          "id": "9",
          "cold": "47.179",
          "hot": "38.745"
        },
        {
          "id": "11",
          "cold": "47.641",
          "hot": "38.922"
        },
        {
          "id": "13",
          "cold": "47.996",
          "hot": "39.090"
        },
        {
          "id": "14",
          "cold": "48.160",
          "hot": "39.160"
        },
        {
          "id": "15",
          "cold": "48.332",
          "hot": "39.257"
        },
        {
          "id": "16",
          "cold": "48.500",
          "hot": "39.352"
        },
        {
          "id": "21",
          "cold": "49.228",
          "hot": "40.08"
        },
        {
          "id": "22",
          "cold": "49.557",
          "hot": "40.162"
        },
        {
          "id": "26",
          "cold": "50.0",
          "hot": "40.695"
        },
        {
          "id": "27",
          "cold": "50.129",
          "hot": "40.707"
        },
        {
          "id": "29",
          "cold": "50.591",
          "hot": "41.09"
        }
      ],
    "august": [
      {
        "id": "31",
        "cold": "45.2289",
        "hot": "38.327"
      }
      ]
    }
}